Section 5: DATA/STAT 234 Review
…
* arrange() : puts a numeric variable in order in assending order.

* select() : column removal for an existing dataset or including columns to a new dataset based off of an already existing dataset.

* slice() : removal or rows by number/value or subset of numbers/values.

* filter() : uses a conditional statement, or statements, to remove a certain variable from the dataset by row.

* group_by() : often used with summarise() to get sample statistics by subcategories within a particular categorical variables levels.

* summmarise() : sample statistics from data.

Exercise 2: Review mutate(). Create a new variable in hpi_df that is equal to Wellbeing / Footprint.

# A tibble: 151 × 12
   HPIRank Country     LifeExpectancy Wellbeing HappyLifeYears Footprint
     <dbl> <chr>                <dbl>     <dbl>          <dbl>     <dbl>
 1     109 Afghanistan           48.7      4.76           29.0     0.540
 2      18 Albania               76.9      5.27           48.8     1.81 
 3      26 Algeria               73.1      5.24           46.2     1.65 
 4     127 Angola                51.1      4.21           28.2     0.891
 5      17 Argentina             75.9      6.44           55.0     2.71 
 6      53 Armenia               74.2      4.37           41.9     1.73 
 7      76 Australia             81.9      7.41           65.5     6.68 
 8      48 Austria               80.9      7.35           64.3     5.29 
 9      80 Azerbaijan            70.7      4.22           39.1     1.97 
10     146 Bahrain               75.1      4.55           43.5     6.65 
# ℹ 141 more rows
# ℹ 6 more variables: HappyPlanetIndex <dbl>, Population <dbl>,
#   GDPcapita <dbl>, GovernanceRank <chr>, Region <chr>,
#   `welbeing/footprint` <dbl>

Exercise 3: Review mutate() and case_when(). Create a new variable in hpi_df that is equal to “80s” if LifeExp is in the 80’s, “70s” if LifeExp is in the 70s, and “Below 70” if LifeExp is less than 70.

# A tibble: 151 × 12
   HPIRank Country     LifeExpectancy Wellbeing HappyLifeYears Footprint
     <dbl> <chr>                <dbl>     <dbl>          <dbl>     <dbl>
 1     109 Afghanistan           48.7      4.76           29.0     0.540
 2      18 Albania               76.9      5.27           48.8     1.81 
 3      26 Algeria               73.1      5.24           46.2     1.65 
 4     127 Angola                51.1      4.21           28.2     0.891
 5      17 Argentina             75.9      6.44           55.0     2.71 
 6      53 Armenia               74.2      4.37           41.9     1.73 
 7      76 Australia             81.9      7.41           65.5     6.68 
 8      48 Austria               80.9      7.35           64.3     5.29 
 9      80 Azerbaijan            70.7      4.22           39.1     1.97 
10     146 Bahrain               75.1      4.55           43.5     6.65 
# ℹ 141 more rows
# ℹ 6 more variables: HappyPlanetIndex <dbl>, Population <dbl>,
#   GDPcapita <dbl>, GovernanceRank <chr>, Region <chr>, LifeExpCat <chr>

Exercise 4: Review arrange(). Sort the hpi_df data so that the country with the highest LifeExp is in the first row and the country with the lowest LifeExp is in the last row.

# A tibble: 151 × 11
   HPIRank Country     LifeExpectancy Wellbeing HappyLifeYears Footprint
     <dbl> <chr>                <dbl>     <dbl>          <dbl>     <dbl>
 1      45 Japan                 83.4      6.06           58.0      4.17
 2     102 Hong Kong             82.8      5.64           54.9      5.81
 3      34 Switzerland           82.3      7.52           66.5      5.01
 4      76 Australia             81.9      7.41           65.5      6.68
 5      51 Italy                 81.9      6.35           58.8      4.52
 6      88 Iceland               81.8      6.89           62.1      6.54
 7      15 Israel                81.6      7.36           64.9      3.96
 8      50 France                81.5      6.80           61.3      4.91
 9      62 Spain                 81.4      6.19           57.4      4.74
10      52 Sweden                81.4      7.50           65.6      5.71
# ℹ 141 more rows
# ℹ 5 more variables: HappyPlanetIndex <dbl>, Population <dbl>,
#   GDPcapita <dbl>, GovernanceRank <chr>, Region <chr>

Exercise 5: Review select(). Make a data frame from hpi_df that only has the variables Country and LifeExp.

# A tibble: 151 × 2
   Country     LifeExpectancy
   <chr>                <dbl>
 1 Afghanistan           48.7
 2 Albania               76.9
 3 Algeria               73.1
 4 Angola                51.1
 5 Argentina             75.9
 6 Armenia               74.2
 7 Australia             81.9
 8 Austria               80.9
 9 Azerbaijan            70.7
10 Bahrain               75.1
# ℹ 141 more rows
…
# A tibble: 5 × 11
  HPIRank Country     LifeExpectancy Wellbeing HappyLifeYears Footprint
    <dbl> <chr>                <dbl>     <dbl>          <dbl>     <dbl>
1     109 Afghanistan           48.7      4.76           29.0     0.540
2      18 Albania               76.9      5.27           48.8     1.81 
3      26 Algeria               73.1      5.24           46.2     1.65 
4     127 Angola                51.1      4.21           28.2     0.891
5      17 Argentina             75.9      6.44           55.0     2.71 
# ℹ 5 more variables: HappyPlanetIndex <dbl>, Population <dbl>,
#   GDPcapita <dbl>, GovernanceRank <chr>, Region <chr>

Exercise 7: Review filter(). Make a data frame from hpi_df that only has countries in the “Western World” Region.

# A tibble: 127 × 11
   HPIRank Country     LifeExpectancy Wellbeing HappyLifeYears Footprint
     <dbl> <chr>                <dbl>     <dbl>          <dbl>     <dbl>
 1     109 Afghanistan           48.7      4.76           29.0     0.540
 2      18 Albania               76.9      5.27           48.8     1.81 
 3      26 Algeria               73.1      5.24           46.2     1.65 
 4     127 Angola                51.1      4.21           28.2     0.891
 5      17 Argentina             75.9      6.44           55.0     2.71 
 6      53 Armenia               74.2      4.37           41.9     1.73 
 7      80 Azerbaijan            70.7      4.22           39.1     1.97 
 8     146 Bahrain               75.1      4.55           43.5     6.65 
 9      11 Bangladesh            68.9      4.99           42.2     0.657
10     103 Belarus               70.3      5.53           46.0     3.99 
# ℹ 117 more rows
# ℹ 5 more variables: HappyPlanetIndex <dbl>, Population <dbl>,
#   GDPcapita <dbl>, GovernanceRank <chr>, Region <chr>
…
